[
    {
        "MenuReportId": -1899999026,
        "ReportViewFieldsId": -1399987879,
        "ReportViewId": -1499999222,
        "ReportViewName": "Item Brand",
        "ReportVsFieldsId": -1399987879,
        "ReportVsFieldsSlNo": 1,
        "ReportVsFieldsFieldName": "ItemBrandId",
        "ReportVsFieldsFieldTitle": "ItemBrandId",
        "ReportVsFieldsFieldType": 0,
        "ReportVsFieldsFieldWidth": 0,
        "ReportVsFieldsIsDisplay": 1,
        "ReportVsFieldsIsMergeColumn": 1,
        "ReportVsFieldsIsGroupColumn": 1,
        "ReportVsFieldsIsSubtotalColumn": 1,
        "ReportVsFieldsIsGrandtotalColumn": 1,
        "ReportVsFieldsCalFormat": "0-9",
        "ReportVsFieldsDisplaySlNo": 1,
        "CriteriaAttributeId": -1
    },
    {
        "MenuReportId": -1899999026,
        "ReportViewFieldsId": -1399987879,
        "ReportViewId": -1399963190,
        "ReportViewName": "Brand",
        "ReportVsFieldsId": -1399987879,
        "ReportVsFieldsSlNo": 1,
        "ReportVsFieldsFieldName": "ItemBrandId",
        "ReportVsFieldsFieldTitle": "ItemBrandId",
        "ReportVsFieldsFieldType": 0,
        "ReportVsFieldsFieldWidth": 0,
        "ReportVsFieldsIsDisplay": 1,
        "ReportVsFieldsIsMergeColumn": 1,
        "ReportVsFieldsIsGroupColumn": 1,
        "ReportVsFieldsIsSubtotalColumn": 1,
        "ReportVsFieldsIsGrandtotalColumn": 1,
        "ReportVsFieldsCalFormat": "0-9",
        "ReportVsFieldsDisplaySlNo": 1,
        "CriteriaAttributeId": -1
    },
    {
        "MenuReportId": -1899999026,
        "ReportViewFieldsId": -1399987878,
        "ReportViewId": -1499999222,
        "ReportViewName": "Item Brand",
        "ReportVsFieldsId": -1399987878,
        "ReportVsFieldsSlNo": 2,
        "ReportVsFieldsFieldName": "ItemBrandCode",
        "ReportVsFieldsFieldTitle": "Code",
        "ReportVsFieldsFieldType": 1,
        "ReportVsFieldsFieldWidth": 200,
        "ReportVsFieldsIsDisplay": 0,
        "ReportVsFieldsIsMergeColumn": 1,
        "ReportVsFieldsIsGroupColumn": 1,
        "ReportVsFieldsIsSubtotalColumn": 1,
        "ReportVsFieldsIsGrandtotalColumn": 1,
        "ReportVsFieldsCalFormat": "A-Z",
        "ReportVsFieldsDisplaySlNo": 2,
        "CriteriaAttributeId": -1
    },
    {
        "MenuReportId": -1899999026,
        "ReportViewFieldsId": -1399987878,
        "ReportViewId": -1399963190,
        "ReportViewName": "Brand",
        "ReportVsFieldsId": -1399987878,
        "ReportVsFieldsSlNo": 2,
        "ReportVsFieldsFieldName": "ItemBrandCode",
        "ReportVsFieldsFieldTitle": "Code",
        "ReportVsFieldsFieldType": 1,
        "ReportVsFieldsFieldWidth": 100,
        "ReportVsFieldsIsDisplay": 0,
        "ReportVsFieldsIsMergeColumn": 1,
        "ReportVsFieldsIsGroupColumn": 1,
        "ReportVsFieldsIsSubtotalColumn": 1,
        "ReportVsFieldsIsGrandtotalColumn": 1,
        "ReportVsFieldsCalFormat": "A-Z",
        "ReportVsFieldsDisplaySlNo": 2,
        "CriteriaAttributeId": -1
    },
    {
        "MenuReportId": -1899999026,
        "ReportViewFieldsId": -1399987877,
        "ReportViewId": -1499999222,
        "ReportViewName": "Item Brand",
        "ReportVsFieldsId": -1399987877,
        "ReportVsFieldsSlNo": 3,
        "ReportVsFieldsFieldName": "ItemBrandName",
        "ReportVsFieldsFieldTitle": "Name",
        "ReportVsFieldsFieldType": 1,
        "ReportVsFieldsFieldWidth": 200,
        "ReportVsFieldsIsDisplay": 0,
        "ReportVsFieldsIsMergeColumn": 1,
        "ReportVsFieldsIsGroupColumn": 1,
        "ReportVsFieldsIsSubtotalColumn": 1,
        "ReportVsFieldsIsGrandtotalColumn": 1,
        "ReportVsFieldsCalFormat": "A-Z",
        "ReportVsFieldsDisplaySlNo": 3,
        "CriteriaAttributeId": -1
    },
    {
        "MenuReportId": -1899999026,
        "ReportViewFieldsId": -1399987877,
        "ReportViewId": -1399963190,
        "ReportViewName": "Brand",
        "ReportVsFieldsId": -1399987877,
        "ReportVsFieldsSlNo": 3,
        "ReportVsFieldsFieldName": "ItemBrandName",
        "ReportVsFieldsFieldTitle": "Name",
        "ReportVsFieldsFieldType": 1,
        "ReportVsFieldsFieldWidth": 150,
        "ReportVsFieldsIsDisplay": 0,
        "ReportVsFieldsIsMergeColumn": 1,
        "ReportVsFieldsIsGroupColumn": 1,
        "ReportVsFieldsIsSubtotalColumn": 1,
        "ReportVsFieldsIsGrandtotalColumn": 1,
        "ReportVsFieldsCalFormat": "A-Z",
        "ReportVsFieldsDisplaySlNo": 3,
        "CriteriaAttributeId": -1
    },
    {
        "MenuReportId": -1899999026,
        "ReportViewFieldsId": -1399987876,
        "ReportViewId": -1499999222,
        "ReportViewName": "Item Brand",
        "ReportVsFieldsId": -1399987876,
        "ReportVsFieldsSlNo": 4,
        "ReportVsFieldsFieldName": "ItemBrandIsSelected",
        "ReportVsFieldsFieldTitle": "Is Selected",
        "ReportVsFieldsFieldType": 10,
        "ReportVsFieldsFieldWidth": 100,
        "ReportVsFieldsIsDisplay": 1,
        "ReportVsFieldsIsMergeColumn": 1,
        "ReportVsFieldsIsGroupColumn": 1,
        "ReportVsFieldsIsSubtotalColumn": 1,
        "ReportVsFieldsIsGrandtotalColumn": 1,
        "ReportVsFieldsCalFormat": "0 to 255",
        "ReportVsFieldsDisplaySlNo": 4,
        "CriteriaAttributeId": -1
    },
    {
        "MenuReportId": -1899999026,
        "ReportViewFieldsId": -1399987876,
        "ReportViewId": -1399963190,
        "ReportViewName": "Brand",
        "ReportVsFieldsId": -1399987876,
        "ReportVsFieldsSlNo": 4,
        "ReportVsFieldsFieldName": "ItemBrandIsSelected",
        "ReportVsFieldsFieldTitle": "Is Selected",
        "ReportVsFieldsFieldType": 10,
        "ReportVsFieldsFieldWidth": 100,
        "ReportVsFieldsIsDisplay": 1,
        "ReportVsFieldsIsMergeColumn": 1,
        "ReportVsFieldsIsGroupColumn": 1,
        "ReportVsFieldsIsSubtotalColumn": 1,
        "ReportVsFieldsIsGrandtotalColumn": 1,
        "ReportVsFieldsCalFormat": "0 to 255",
        "ReportVsFieldsDisplaySlNo": 4,
        "CriteriaAttributeId": -1
    },
    {
        "MenuReportId": -1899999026,
        "ReportViewFieldsId": -1399987875,
        "ReportViewId": -1499999222,
        "ReportViewName": "Item Brand",
        "ReportVsFieldsId": -1399987875,
        "ReportVsFieldsSlNo": 5,
        "ReportVsFieldsFieldName": "ItemBrandRemarks",
        "ReportVsFieldsFieldTitle": "Remarks",
        "ReportVsFieldsFieldType": 1,
        "ReportVsFieldsFieldWidth": 200,
        "ReportVsFieldsIsDisplay": 0,
        "ReportVsFieldsIsMergeColumn": 1,
        "ReportVsFieldsIsGroupColumn": 1,
        "ReportVsFieldsIsSubtotalColumn": 1,
        "ReportVsFieldsIsGrandtotalColumn": 1,
        "ReportVsFieldsCalFormat": "A-Z",
        "ReportVsFieldsDisplaySlNo": 5,
        "CriteriaAttributeId": -1
    },
    {
        "MenuReportId": -1899999026,
        "ReportViewFieldsId": -1399987875,
        "ReportViewId": -1399963190,
        "ReportViewName": "Brand",
        "ReportVsFieldsId": -1399987875,
        "ReportVsFieldsSlNo": 5,
        "ReportVsFieldsFieldName": "ItemBrandRemarks",
        "ReportVsFieldsFieldTitle": "Remarks",
        "ReportVsFieldsFieldType": 1,
        "ReportVsFieldsFieldWidth": 200,
        "ReportVsFieldsIsDisplay": 0,
        "ReportVsFieldsIsMergeColumn": 1,
        "ReportVsFieldsIsGroupColumn": 1,
        "ReportVsFieldsIsSubtotalColumn": 1,
        "ReportVsFieldsIsGrandtotalColumn": 1,
        "ReportVsFieldsCalFormat": "A-Z",
        "ReportVsFieldsDisplaySlNo": 5,
        "CriteriaAttributeId": -1
    },
    {
        "MenuReportId": -1899999026,
        "ReportViewFieldsId": -1399987874,
        "ReportViewId": -1499999222,
        "ReportViewName": "Item Brand",
        "ReportVsFieldsId": -1399987874,
        "ReportVsFieldsSlNo": 6,
        "ReportVsFieldsFieldName": "ItemBrandCreatedById",
        "ReportVsFieldsFieldTitle": "ItemBrandCreatedById",
        "ReportVsFieldsFieldType": 0,
        "ReportVsFieldsFieldWidth": 0,
        "ReportVsFieldsIsDisplay": 1,
        "ReportVsFieldsIsMergeColumn": 1,
        "ReportVsFieldsIsGroupColumn": 1,
        "ReportVsFieldsIsSubtotalColumn": 1,
        "ReportVsFieldsIsGrandtotalColumn": 1,
        "ReportVsFieldsCalFormat": "0-9",
        "ReportVsFieldsDisplaySlNo": 6,
        "CriteriaAttributeId": -1
    },
    {
        "MenuReportId": -1899999026,
        "ReportViewFieldsId": -1399987874,
        "ReportViewId": -1399963190,
        "ReportViewName": "Brand",
        "ReportVsFieldsId": -1399987874,
        "ReportVsFieldsSlNo": 6,
        "ReportVsFieldsFieldName": "ItemBrandCreatedById",
        "ReportVsFieldsFieldTitle": "ItemBrandCreatedById",
        "ReportVsFieldsFieldType": 0,
        "ReportVsFieldsFieldWidth": 0,
        "ReportVsFieldsIsDisplay": 1,
        "ReportVsFieldsIsMergeColumn": 1,
        "ReportVsFieldsIsGroupColumn": 1,
        "ReportVsFieldsIsSubtotalColumn": 1,
        "ReportVsFieldsIsGrandtotalColumn": 1,
        "ReportVsFieldsCalFormat": "0-9",
        "ReportVsFieldsDisplaySlNo": 6,
        "CriteriaAttributeId": -1
    },
    {
        "MenuReportId": -1899999026,
        "ReportViewFieldsId": -1399987873,
        "ReportViewId": -1499999222,
        "ReportViewName": "Item Brand",
        "ReportVsFieldsId": -1399987873,
        "ReportVsFieldsSlNo": 7,
        "ReportVsFieldsFieldName": "ItemBrandCreatedOn",
        "ReportVsFieldsFieldTitle": "ItemBrandCreatedOn",
        "ReportVsFieldsFieldType": 3,
        "ReportVsFieldsFieldWidth": 100,
        "ReportVsFieldsIsDisplay": 1,
        "ReportVsFieldsIsMergeColumn": 1,
        "ReportVsFieldsIsGroupColumn": 1,
        "ReportVsFieldsIsSubtotalColumn": 1,
        "ReportVsFieldsIsGrandtotalColumn": 1,
        "ReportVsFieldsCalFormat": "dd/mmm/yyyy HH:MM:ss",
        "ReportVsFieldsDisplaySlNo": 7,
        "CriteriaAttributeId": -1
    },
    {
        "MenuReportId": -1899999026,
        "ReportViewFieldsId": -1399987873,
        "ReportViewId": -1399963190,
        "ReportViewName": "Brand",
        "ReportVsFieldsId": -1399987873,
        "ReportVsFieldsSlNo": 7,
        "ReportVsFieldsFieldName": "ItemBrandCreatedOn",
        "ReportVsFieldsFieldTitle": "ItemBrandCreatedOn",
        "ReportVsFieldsFieldType": 3,
        "ReportVsFieldsFieldWidth": 100,
        "ReportVsFieldsIsDisplay": 1,
        "ReportVsFieldsIsMergeColumn": 1,
        "ReportVsFieldsIsGroupColumn": 1,
        "ReportVsFieldsIsSubtotalColumn": 1,
        "ReportVsFieldsIsGrandtotalColumn": 1,
        "ReportVsFieldsCalFormat": "dd/mmm/yyyy HH:MM:ss",
        "ReportVsFieldsDisplaySlNo": 7,
        "CriteriaAttributeId": -1
    },
    {
        "MenuReportId": -1899999026,
        "ReportViewFieldsId": -1399987872,
        "ReportViewId": -1499999222,
        "ReportViewName": "Item Brand",
        "ReportVsFieldsId": -1399987872,
        "ReportVsFieldsSlNo": 8,
        "ReportVsFieldsFieldName": "ItemBrandModifiedById",
        "ReportVsFieldsFieldTitle": "ItemBrandModifiedById",
        "ReportVsFieldsFieldType": 0,
        "ReportVsFieldsFieldWidth": 0,
        "ReportVsFieldsIsDisplay": 1,
        "ReportVsFieldsIsMergeColumn": 1,
        "ReportVsFieldsIsGroupColumn": 1,
        "ReportVsFieldsIsSubtotalColumn": 1,
        "ReportVsFieldsIsGrandtotalColumn": 1,
        "ReportVsFieldsCalFormat": "0-9",
        "ReportVsFieldsDisplaySlNo": 8,
        "CriteriaAttributeId": -1
    },
    {
        "MenuReportId": -1899999026,
        "ReportViewFieldsId": -1399987872,
        "ReportViewId": -1399963190,
        "ReportViewName": "Brand",
        "ReportVsFieldsId": -1399987872,
        "ReportVsFieldsSlNo": 8,
        "ReportVsFieldsFieldName": "ItemBrandModifiedById",
        "ReportVsFieldsFieldTitle": "ItemBrandModifiedById",
        "ReportVsFieldsFieldType": 0,
        "ReportVsFieldsFieldWidth": 0,
        "ReportVsFieldsIsDisplay": 1,
        "ReportVsFieldsIsMergeColumn": 1,
        "ReportVsFieldsIsGroupColumn": 1,
        "ReportVsFieldsIsSubtotalColumn": 1,
        "ReportVsFieldsIsGrandtotalColumn": 1,
        "ReportVsFieldsCalFormat": "0-9",
        "ReportVsFieldsDisplaySlNo": 8,
        "CriteriaAttributeId": -1
    },
    {
        "MenuReportId": -1899999026,
        "ReportViewFieldsId": -1399987871,
        "ReportViewId": -1499999222,
        "ReportViewName": "Item Brand",
        "ReportVsFieldsId": -1399987871,
        "ReportVsFieldsSlNo": 9,
        "ReportVsFieldsFieldName": "ItemBrandModifiedOn",
        "ReportVsFieldsFieldTitle": "ItemBrandModifiedOn",
        "ReportVsFieldsFieldType": 3,
        "ReportVsFieldsFieldWidth": 100,
        "ReportVsFieldsIsDisplay": 1,
        "ReportVsFieldsIsMergeColumn": 1,
        "ReportVsFieldsIsGroupColumn": 1,
        "ReportVsFieldsIsSubtotalColumn": 1,
        "ReportVsFieldsIsGrandtotalColumn": 1,
        "ReportVsFieldsCalFormat": "dd/mmm/yyyy HH:MM:ss",
        "ReportVsFieldsDisplaySlNo": 9,
        "CriteriaAttributeId": -1
    },
    {
        "MenuReportId": -1899999026,
        "ReportViewFieldsId": -1399987871,
        "ReportViewId": -1399963190,
        "ReportViewName": "Brand",
        "ReportVsFieldsId": -1399987871,
        "ReportVsFieldsSlNo": 9,
        "ReportVsFieldsFieldName": "ItemBrandModifiedOn",
        "ReportVsFieldsFieldTitle": "ItemBrandModifiedOn",
        "ReportVsFieldsFieldType": 3,
        "ReportVsFieldsFieldWidth": 100,
        "ReportVsFieldsIsDisplay": 1,
        "ReportVsFieldsIsMergeColumn": 1,
        "ReportVsFieldsIsGroupColumn": 1,
        "ReportVsFieldsIsSubtotalColumn": 1,
        "ReportVsFieldsIsGrandtotalColumn": 1,
        "ReportVsFieldsCalFormat": "dd/mmm/yyyy HH:MM:ss",
        "ReportVsFieldsDisplaySlNo": 9,
        "CriteriaAttributeId": -1
    },
    {
        "MenuReportId": -1899999026,
        "ReportViewFieldsId": -1399987870,
        "ReportViewId": -1499999222,
        "ReportViewName": "Item Brand",
        "ReportVsFieldsId": -1399987870,
        "ReportVsFieldsSlNo": 10,
        "ReportVsFieldsFieldName": "ItemBrandSortOrder",
        "ReportVsFieldsFieldTitle": "ItemBrandSortOrder",
        "ReportVsFieldsFieldType": 9,
        "ReportVsFieldsFieldWidth": 100,
        "ReportVsFieldsIsDisplay": 1,
        "ReportVsFieldsIsMergeColumn": 1,
        "ReportVsFieldsIsGroupColumn": 1,
        "ReportVsFieldsIsSubtotalColumn": 1,
        "ReportVsFieldsIsGrandtotalColumn": 1,
        "ReportVsFieldsCalFormat": "9999",
        "ReportVsFieldsDisplaySlNo": 10,
        "CriteriaAttributeId": -1
    },
    {
        "MenuReportId": -1899999026,
        "ReportViewFieldsId": -1399987870,
        "ReportViewId": -1399963190,
        "ReportViewName": "Brand",
        "ReportVsFieldsId": -1399987870,
        "ReportVsFieldsSlNo": 10,
        "ReportVsFieldsFieldName": "ItemBrandSortOrder",
        "ReportVsFieldsFieldTitle": "ItemBrandSortOrder",
        "ReportVsFieldsFieldType": 9,
        "ReportVsFieldsFieldWidth": 100,
        "ReportVsFieldsIsDisplay": 1,
        "ReportVsFieldsIsMergeColumn": 1,
        "ReportVsFieldsIsGroupColumn": 1,
        "ReportVsFieldsIsSubtotalColumn": 1,
        "ReportVsFieldsIsGrandtotalColumn": 1,
        "ReportVsFieldsCalFormat": "9999",
        "ReportVsFieldsDisplaySlNo": 10,
        "CriteriaAttributeId": -1
    },
    {
        "MenuReportId": -1899999026,
        "ReportViewFieldsId": -1399987869,
        "ReportViewId": -1499999222,
        "ReportViewName": "Item Brand",
        "ReportVsFieldsId": -1399987869,
        "ReportVsFieldsSlNo": 11,
        "ReportVsFieldsFieldName": "ItemBrandStatus",
        "ReportVsFieldsFieldTitle": "ItemBrandStatus",
        "ReportVsFieldsFieldType": 10,
        "ReportVsFieldsFieldWidth": 100,
        "ReportVsFieldsIsDisplay": 1,
        "ReportVsFieldsIsMergeColumn": 1,
        "ReportVsFieldsIsGroupColumn": 1,
        "ReportVsFieldsIsSubtotalColumn": 1,
        "ReportVsFieldsIsGrandtotalColumn": 1,
        "ReportVsFieldsCalFormat": "0 to 255",
        "ReportVsFieldsDisplaySlNo": 11,
        "CriteriaAttributeId": -1
    },
    {
        "MenuReportId": -1899999026,
        "ReportViewFieldsId": -1399987869,
        "ReportViewId": -1399963190,
        "ReportViewName": "Brand",
        "ReportVsFieldsId": -1399987869,
        "ReportVsFieldsSlNo": 11,
        "ReportVsFieldsFieldName": "ItemBrandStatus",
        "ReportVsFieldsFieldTitle": "ItemBrandStatus",
        "ReportVsFieldsFieldType": 10,
        "ReportVsFieldsFieldWidth": 100,
        "ReportVsFieldsIsDisplay": 1,
        "ReportVsFieldsIsMergeColumn": 1,
        "ReportVsFieldsIsGroupColumn": 1,
        "ReportVsFieldsIsSubtotalColumn": 1,
        "ReportVsFieldsIsGrandtotalColumn": 1,
        "ReportVsFieldsCalFormat": "0 to 255",
        "ReportVsFieldsDisplaySlNo": 11,
        "CriteriaAttributeId": -1
    },
    {
        "MenuReportId": -1899999026,
        "ReportViewFieldsId": -1399987868,
        "ReportViewId": -1499999222,
        "ReportViewName": "Item Brand",
        "ReportVsFieldsId": -1399987868,
        "ReportVsFieldsSlNo": 12,
        "ReportVsFieldsFieldName": "ItemBrandVersion",
        "ReportVsFieldsFieldTitle": "ItemBrandVersion",
        "ReportVsFieldsFieldType": 9,
        "ReportVsFieldsFieldWidth": 100,
        "ReportVsFieldsIsDisplay": 1,
        "ReportVsFieldsIsMergeColumn": 1,
        "ReportVsFieldsIsGroupColumn": 1,
        "ReportVsFieldsIsSubtotalColumn": 1,
        "ReportVsFieldsIsGrandtotalColumn": 1,
        "ReportVsFieldsCalFormat": "9999",
        "ReportVsFieldsDisplaySlNo": 12,
        "CriteriaAttributeId": -1
    },
    {
        "MenuReportId": -1899999026,
        "ReportViewFieldsId": -1399987868,
        "ReportViewId": -1399963190,
        "ReportViewName": "Brand",
        "ReportVsFieldsId": -1399987868,
        "ReportVsFieldsSlNo": 12,
        "ReportVsFieldsFieldName": "ItemBrandVersion",
        "ReportVsFieldsFieldTitle": "ItemBrandVersion",
        "ReportVsFieldsFieldType": 9,
        "ReportVsFieldsFieldWidth": 100,
        "ReportVsFieldsIsDisplay": 1,
        "ReportVsFieldsIsMergeColumn": 1,
        "ReportVsFieldsIsGroupColumn": 1,
        "ReportVsFieldsIsSubtotalColumn": 1,
        "ReportVsFieldsIsGrandtotalColumn": 1,
        "ReportVsFieldsCalFormat": "9999",
        "ReportVsFieldsDisplaySlNo": 12,
        "CriteriaAttributeId": -1
    },
    {
        "MenuReportId": -1899999026,
        "ReportViewFieldsId": -1399987867,
        "ReportViewId": -1499999222,
        "ReportViewName": "Item Brand",
        "ReportVsFieldsId": -1399987867,
        "ReportVsFieldsSlNo": 13,
        "ReportVsFieldsFieldName": "ItemBrandScreenOperationMode",
        "ReportVsFieldsFieldTitle": "ItemBrandScreenOperationMode",
        "ReportVsFieldsFieldType": 0,
        "ReportVsFieldsFieldWidth": 0,
        "ReportVsFieldsIsDisplay": 1,
        "ReportVsFieldsIsMergeColumn": 1,
        "ReportVsFieldsIsGroupColumn": 1,
        "ReportVsFieldsIsSubtotalColumn": 1,
        "ReportVsFieldsIsGrandtotalColumn": 1,
        "ReportVsFieldsCalFormat": "0-9",
        "ReportVsFieldsDisplaySlNo": 13,
        "CriteriaAttributeId": -1
    },
    {
        "MenuReportId": -1899999026,
        "ReportViewFieldsId": -1399987867,
        "ReportViewId": -1399963190,
        "ReportViewName": "Brand",
        "ReportVsFieldsId": -1399987867,
        "ReportVsFieldsSlNo": 13,
        "ReportVsFieldsFieldName": "ItemBrandScreenOperationMode",
        "ReportVsFieldsFieldTitle": "ItemBrandScreenOperationMode",
        "ReportVsFieldsFieldType": 0,
        "ReportVsFieldsFieldWidth": 0,
        "ReportVsFieldsIsDisplay": 1,
        "ReportVsFieldsIsMergeColumn": 1,
        "ReportVsFieldsIsGroupColumn": 1,
        "ReportVsFieldsIsSubtotalColumn": 1,
        "ReportVsFieldsIsGrandtotalColumn": 1,
        "ReportVsFieldsCalFormat": "0-9",
        "ReportVsFieldsDisplaySlNo": 13,
        "CriteriaAttributeId": -1
    }
]