[
    {
        "viewValue": "1 column",
        "viewtype": "HTMLVIEW",
        "Columnsetting":[
            {
                "headerName": "Code",
                "field": "Code",
                "sortable": true,
                "filter": "agTextColumnFilter",
                "checkboxSelection": true,
                "resizable": true,
                "editable": true,
                "pinned": "left",
                "flex": 1,
                "minWidth": 50,
                "enableRowGroup": true,
                "enablePivot": true,
                "enableValue": true,
                "paginationAutoPageSize": true,
                "pagination": true,
                "routingpath": "..",
                "routingparams": "Id"
            }
        ]
    },
    {
        "viewValue": "2 column",
        "viewtype": "GRIDVIEW",
        "Columnsetting":[
            {
                "headerName": "Code",
                "field": "Code",
                "sortable": true,
                "filter": "agTextColumnFilter",
                "checkboxSelection": true,
                "resizable": true,
                "editable": true,
                "pinned": "left",
                "flex": 1,
                "minWidth": 50,
                "enableRowGroup": true,
                "enablePivot": true,
                "enableValue": true,
                "paginationAutoPageSize": true,
                "pagination": true,
                "routingpath": "..",
                "routingparams": "Id"
            },
            {
                "headerName": "Name",
                "field": "Name",
                "sortable": true,
                "filter": "agTextColumnFilter",
                "resizable": true,
                "editable": true,
                "routingpath": "..",
                "routingparams": "Id"
            }
        ]
    },
    {
        "viewValue": "3 column",
        "viewtype": "HTMLVIEW",
        "Columnsetting":[
            {
                "headerName": "Code",
                "field": "Code",
                "sortable": true,
                "filter": "agTextColumnFilter",
                "checkboxSelection": true,
                "resizable": true,
                "editable": true,
                "pinned": "left",
                "flex": 1,
                "minWidth": 50,
                "enableRowGroup": true,
                "enablePivot": true,
                "enableValue": true,
                "paginationAutoPageSize": true,
                "pagination": true,
                "routingpath": "..",
                "routingparams": "Id"
            },
            {
                "headerName": "Name",
                "field": "Name",
                "sortable": true,
                "filter": "agTextColumnFilter",
                "resizable": true,
                "editable": true,
                "routingpath": "..",
                "routingparams": "Id"
            },
            {
                "headerName": "Id",
                "field": "Id",
                "sortable": true,
                "filter": "agTextColumnFilter",
                "resizable": true,
                "editable": true,
                "routingpath": "..",
                "routingparams": "Id"
            }
        ]
    },
    {
        "viewValue": "4 column",
        "viewtype": "HTMLVIEW",
        "Columnsetting":[
            {
                "headerName": "Code",
                "field": "Code",
                "sortable": true,
                "filter": "agTextColumnFilter",
                "checkboxSelection": true,
                "resizable": true,
                "editable": true,
                "pinned": "left",
                "flex": 1,
                "minWidth": 50,
                "enableRowGroup": true,
                "enablePivot": true,
                "enableValue": true,
                "paginationAutoPageSize": true,
                "pagination": true,
                "routingpath": "..",
                "routingparams": "Id"
            },
            {
                "headerName": "Name",
                "field": "Name",
                "sortable": true,
                "filter": "agTextColumnFilter",
                "resizable": true,
                "editable": true,
                "routingpath": "..",
                "routingparams": "Id"
            },
            {
                "headerName": "Id",
                "field": "Id",
                "sortable": true,
                "filter": "agTextColumnFilter",
                "resizable": true,
                "editable": true,
                "routingpath": "..",
                "routingparams": "Id"
            },
            {
                "headerName": "Testcol",
                "field": "Testcol",
                "sortable": true,
                "filter": "agTextColumnFilter",
                "resizable": true,
                "editable": true,
                "routingpath": "..",
                "routingparams": "Id"
            }
        ]
    }
]