[
    {
      "headerName": "Type",
      "field": "InstrumentType"
    },
    {
      "headerName": "Name",
      "field": "InstrumentName"
    },
    {
      "headerName": "Account",
      "field": "AccountName"
    },
    {
      "headerName": "Posting",
      "field": "InstrumentAccountPostType"
    },
    {
      "headerName": "Post Dater",
      "field": "InstrumentPostDatedType"
    },
    {
      "headerName": "Status",
      "field": "InstrumentStatusOfInstrument"
    },
    {
      "headerName": "Bank",
      "field": "InstrumentIsApplicableForBank"
    },
    {
      "headerName": "Counter",
      "field": "InstrumentIsApplicableforCounterTransaction"
    },
    {
        "headerName": "Validity Days",
        "field": "InstrumentValidityPeriodInDays"
    }
]